<?xml version="1.0" encoding="utf-8"?>
<!-- Generator: Adobe Illustrator 24.2.1, SVG Export Plug-In . SVG Version: 6.00 Build 0)  -->
<svg version="1.1" id="Capa_1" xmlns="http://www.w3.org/2000/svg" xmlns:xlink="http://www.w3.org/1999/xlink" x="0px" y="0px"
	 viewBox="0 0 45.35 45.35" style="enable-background:new 0 0 45.35 45.35;" xml:space="preserve">
<style type="text/css">
	.st0{fill-rule:evenodd;clip-rule:evenodd;fill:#FFFFFF;}
</style>
<path id="XMLID_6_" class="st0" d="M39.39,13.55c0.25-1.41,0.25-2.86-0.63-3.96c-1.22-1.54-3.81-1.6-5.58-1.32
	c-1.44,0.22-6.32,2.37-7.99,7.53c2.94-0.22,4.49,0.21,4.2,3.45c-0.12,1.36-0.8,2.84-1.57,4.26c-0.88,1.64-2.54,4.86-4.71,2.54
	c-1.96-2.09-1.81-6.09-2.26-8.75c-0.25-1.49-0.51-3.36-1-4.89c-0.42-1.32-1.39-2.91-2.57-3.26c-1.27-0.37-2.84,0.21-3.76,0.75
	c-2.94,1.73-5.18,4.18-7.72,6.21l0,0c0.41,0.89,0.64,1.46,1.38,1.57c1.75,0.26,3.42-1.63,4.58,0.33c0.71,1.2,0.93,2.52,1.38,3.81
	c0.61,1.72,1.07,3.6,1.57,5.58c0.84,3.36,1.87,8.37,4.77,9.6c1.48,0.63,3.7-0.21,4.83-0.88c3.05-1.81,5.43-4.42,7.46-7.09
	C36.44,22.73,39.01,15.59,39.39,13.55z"/>
</svg>
